package normalization

//list any import classes here.
import ch.vknws.vierkant.type.AuthorizationKeyModel

//declare any global variables here

rule "nrm_keyName"
    when
    	$model : AuthorizationKeyModel(keyName == "")
    then
    	$model.setKeyName(null);
end
//rule "nrm_mode"
//    when
//    	AuthorizationKeyModel()
//    then
//end
//rule "nrm_type"
//    when
//    	AuthorizationKeyModel()
//    then
//end
//rule "nrm_subordinate"
//    when
//    	$model : AuthorizationKeyModel()
//    then
//end
