package normalization

//list any import classes here.
import ch.vknws.vierkant.type.FunctionGroupModel

//declare any global variables here

//rule "nrm_groupMembers"
//    when
//    	FunctionGroupModel()
//    then
//end
//rule "nrm_details"
//    when
//    	FunctionGroupModel(details)
//    then
//end
