package normalization

//list any import classes here.
import ch.vknws.vierkant.type.MedicalInformationModel

//declare any global variables here

rule "nrm_allergies"
    when
    	$model : MedicalInformationModel(allergies == "")
    then
    	$model.setAllergies(null);
end
rule "nrm_classifiedConditions"
    when
    	$model : MedicalInformationModel(classifiedConditions == "")
    then
    	$model.setClassifiedConditions(null);
end
rule "nrm_comment"
    when
    	$model : MedicalInformationModel(comment == "")
    then
    	$model.setComment(null);
end
rule "nrm_classifiedComment"
    when
    	$model : MedicalInformationModel(classifiedComment == "")
    then
    	$model.setClassifiedComment(null);
end
