package normalization

//list any import classes here.
import ch.vknws.vierkant.type.PersonModel

//declare any global variables here

rule "nrm_givenName"
    when
    	$model : PersonModel(givenName == "")
    then
    	$model.setGivenName(null);
end
rule "nrm_familyName"
    when
    	$model : PersonModel(familyName == "")
    then
    	$model.setFamilyName(null);
end
rule "nrm_title"
    when
    	$model : PersonModel(title == "")
    then
    	$model.setTitle(null);
end
rule "nrm_telephone"
    when
    	$model : PersonModel(telephone == "")
    then
    	$model.setTelephone(null);
end
rule "nrm_mobile"
    when
    	$model : PersonModel(mobile == "")
    then
    	$model.setMobile(null);
end
rule "nrm_emailPrivate"
    when
    	$model : PersonModel(emailPrivate == "")
    then
    	$model.setEmailPrivate(null);
end
rule "nrm_emailOrganization"
    when
    	$model : PersonModel(emailOrganization == "")
    then
    	$model.setEmailOrganization(null);
end
//rule "nrm_birthdate"
//    when
//    	$model : PersonModel()
//    then
//end
rule "nrm_secretaryComment"
    when
    	$model : PersonModel(secretaryComment == "")
    then
    	$model.setSecretaryComment(null);
end
//rule "nrm_vkNews"
//    when
//    	$model : PersonModel()
//    then
//end
//rule "nrm_lastUpdateCheck"
//    when
//    	$model : PersonModel()
//    then
//end
rule "nrm_shorthand"
    when
    	$model : PersonModel(shorthand == "")
    then
    	$model.setShorthand(null);
end
//rule "nrm_vka"
//    when
//    	$model : PersonModel()
//    then
//end
//rule "nrm_memberCategory"
//    when
//    	$model : PersonModel()
//    then
//end
//rule "nrm_sex"
//    when
//    	$model : PersonModel()
//    then
//end
//rule "nrm_homeAddress"
//    when
//    	$model : PersonModel()
//    then
//end
//rule "nrm_contactPersons"
//    when
//    	$model : PersonModel()
//    then
//end
//rule "nrm_aargauLicense"
//    when
//    	$model : PersonModel()
//    then
//end
//rule "nrm_memberGroup"
//    when
//    	$model : PersonModel()
//    then
//end
//rule "nrm_rank"
//    when
//    	$model : PersonModel()
//    then
//end
//rule "nrm_functions"
//    when
//    	$model : PersonModel()
//    then
//end
//rule "nrm_primaryFunction"
//    when
//    	$model : PersonModel()
//    then
//end
//rule "nrm_completedCourses"
//    when
//    	$model : PersonModel()
//    then
//end
//rule "nrm_medicalInformation"
//    when
//    	$model : PersonModel()
//    then
//end
