package normalization

//list any import classes here.
import ch.vknws.vierkant.type.TrainingCourseInstanceModel

//declare any global variables here

//rule "nrm_template"
//    when
//    	$model : TrainingCourseInstanceModel()
//    then
//end
//rule "nrm_responsible"
//    when
//    	$model : TrainingCourseInstanceModel()
//    then
//end
//rule "nrm_teachers"
//    when
//    	$model : TrainingCourseInstanceModel()
//    then
//end
//rule "nrm_participants"
//    when
//    	$model : TrainingCourseInstanceModel()
//    then
//end
